Summarising data with dplyr and pipes %>%
…
---

## The `dplyr::group_by()` function

The `dplyr::summarise()` function is not that useful **by itself**. It's real
power comes when it's combined with `dplyr::group_by()`, which allows us to
**group together rows** according to a **grouping variable**

.pull-left[
A tibble that hasn't been grouped

```
## # A tibble: 20 × 3
##   id    condition    rt
##   <chr> <chr>     <dbl>
## 1 sub01 inc        946.
## 2 sub01 con        860.
## 3 sub02 inc        850.
## 4 sub02 con        758.
## # … with 16 more rows
```
]

.pull-right[
...and now grouped by **condition**

```
## # A tibble: 20 × 3
## # Groups:   condition [2]
##   id    condition    rt
##   <chr> <chr>     <dbl>
## 1 sub01 inc        946.
## 2 sub01 con        860.
## 3 sub02 inc        850.
## # … with 17 more rows
```
…
### Working with grouped data

Once we have grouped data, then we can calculate summaries **by group**. 

.pull-left[
A tibble grouped by condition 

```
## # A tibble: 20 × 3
## # Groups:   condition [2]
##   id    condition    rt
##   <chr> <chr>     <dbl>
## 1 sub01 inc        946.
## 2 sub01 con        860.
## 3 sub02 inc        850.
## 4 sub02 con        758.
## # … with 16 more rows
```
…
The two steps now function *like a single command*

---

## Using `%>%` to chain together steps

You can chain together **any number of steps** and use any functions you want!

You can also move the first input outside the first function and pipe that in too!

Let's say you start off with something like this:

```
## # A tibble: 344 × 6
##    species island   body_mass_g bill_length_mm sex    year
##    <fct>   <fct>          <int>          <dbl> <fct> <int>
##  1 Adelie  Torgers…        3750           39.1 male   2007
##  2 Adelie  Torgers…        3800           39.5 fema…  2007
##  3 Adelie  Torgers…        3250           40.3 fema…  2007
##  4 Adelie  Torgers…          NA           NA   <NA>   2007
##  5 Adelie  Torgers…        3450           36.7 fema…  2007
##  6 Adelie  Torgers…        3650           39.3 male   2007
##  7 Adelie  Torgers…        3625           38.9 fema…  2007
##  8 Adelie  Torgers…        4675           39.2 male   2007
##  9 Adelie  Torgers…        3475           34.1 <NA>   2007
## 10 Adelie  Torgers…        4250           42   <NA>   2007
## # … with 334 more rows
```
…
