Grouping, summarising, and piping
…
```

If you know how to use the `dplyr::mutate()` function then the `dplyr::summarise()` function is easy to learn

---

## Grouping and summarising

The `dplyr::summarise()` function is that useful **by itself**. It's real power comes when it's combined with `dplyr::group_by()`, which allows us to **group together rows** according to a **grouping variable**

.pull-left[
A tibble that hasn't been grouped

```
## # A tibble: 20 x 3
##   id    condition    rt
##   <chr> <chr>     <dbl>
## 1 sub01 inc        854.
## 2 sub01 con        888.
## 3 sub02 inc        943.
## 4 sub02 con        813.
## # … with 16 more rows
```
]

.pull-right[
A tibble that has been grouped by **condition**

```
## # A tibble: 20 x 3
## # Groups:   condition [2]
##   id    condition    rt
##   <chr> <chr>     <dbl>
## 1 sub01 inc        854.
## 2 sub01 con        888.
## 3 sub02 inc        943.
## 4 sub02 con        813.
## # … with 16 more rows
```
…
To **group** the tibble **by condition** we'd just run
```r
dplyr::group_by(.data = stroop, condition)
```
---

### Working with grouped data

Once we have grouped data, then we can calculate summaries **by group**. 

.pull-left[
A tibble grouped by condition 

```
## # A tibble: 20 x 3
## # Groups:   condition [2]
##   id    condition    rt
##   <chr> <chr>     <dbl>
## 1 sub01 inc        854.
## 2 sub01 con        888.
## 3 sub02 inc        943.
## 4 sub02 con        813.
## # … with 16 more rows
```
…
The two steps now function *like a single command*

---

## Using `%>%` to chain together steps

You can chain together **any number of steps** and use any functions you want!

You can also move the first input outside the first function and pipe that in too!

Let's say you start off with something like this:

```
## # A tibble: 344 x 6
##    species island    body_mass_g bill_length_mm sex     year
##    <fct>   <fct>           <int>          <dbl> <fct>  <int>
##  1 Adelie  Torgersen        3750           39.1 male    2007
##  2 Adelie  Torgersen        3800           39.5 female  2007
##  3 Adelie  Torgersen        3250           40.3 female  2007
##  4 Adelie  Torgersen          NA           NA   <NA>    2007
##  5 Adelie  Torgersen        3450           36.7 female  2007
##  6 Adelie  Torgersen        3650           39.3 male    2007
##  7 Adelie  Torgersen        3625           38.9 female  2007
##  8 Adelie  Torgersen        4675           39.2 male    2007
##  9 Adelie  Torgersen        3475           34.1 <NA>    2007
## 10 Adelie  Torgersen        4250           42   <NA>    2007
## # … with 334 more rows
```
…
