…
I this scenario you're working as a penguin researcher. You'd like to analyse the data in the `penguins2` dataset, but at the moment it just contains too much irrelevant information. You don't need any of the information about bill length and flipper length. In fact, all you need is penguin's sex, their species, the island they're from, their mass, and the year the measurement was taken in. Tidy up the `penguins2` so it just has the information you need. You'll assign the output to a object called `tidypenguins`.

```{r}
## WRITE YOUR ANSWER IN HERE

<- dplyr::select(.data = penguins2, )
tidypenguins
```

Once you're done the output from `tidypenguins` should look something like this:

```
# A tibble: 333 x 5
   species island    sex    body_mass_g  year
   <fct>   <fct>     <fct>        <int> <int>
 1 Adelie  Torgersen male          3750  2007
 2 Adelie  Torgersen female        3800  2007
 3 Adelie  Torgersen female        3250  2007
 4 Adelie  Torgersen female        3450  2007
 5 Adelie  Torgersen male          3650  2007
 6 Adelie  Torgersen female        3625  2007
 7 Adelie  Torgersen male          4675  2007
 8 Adelie  Torgersen female        3200  2007
 9 Adelie  Torgersen male          3800  2007
10 Adelie  Torgersen male          4400  2007
# … with 323 more rows 
```
## Tidying up `tidypenguins` (Difficulty rating: Easy)

This is just a continuation of the previous scenario. You've decided that the `tidypenguins` data still contains too much irrelevant information. You want to tidy it up further. You've decided that you only need to the data from the female penguins. Tidy up `tidypenguins` so it just has the information you need. You'll assign the output to an object called `tidypenguins_female`

```{r}
## WRITE YOUR ANSWER IN HERE

tidypenguins_females <- dplyr::filter(.data = tidypenguins, sex _____)
tidypenguins_females
```

Once you're done the output from `tidypenguins_females` should look something like this:

```
# A tibble: 165 x 5
   species island    sex    body_mass_g  year
   <fct>   <fct>     <fct>        <int> <int>
 1 Adelie  Torgersen female        3800  2007
 2 Adelie  Torgersen female        3250  2007
 3 Adelie  Torgersen female        3450  2007
 4 Adelie  Torgersen female        3625  2007
 5 Adelie  Torgersen female        3200  2007
 6 Adelie  Torgersen female        3700  2007
 7 Adelie  Torgersen female        3450  2007
 8 Adelie  Torgersen female        3325  2007
 9 Adelie  Biscoe    female        3400  2007
10 Adelie  Biscoe    female        3800  2007
# … with 155 more rows
```
…
Just to refresh your memory on what a z-score is: You take each measurement, you subtract the mean of all the measurements, and you divide the result by the standard deviation. We'll do each one of the these steps separately to make it a little easier.

In the first step, we'll just add a column to our `tidypenguins_females` data that will hold the mean of the `body_mass_g` column. To calculate the mean you'll need to use the `mean()` functions together with `dplyr::mutate()`

```{r}
## WRITE YOUR ANSWER IN HERE

tidypenguins_females <- dplyr::mutate(.data = tidypenguins_females, ____)
tidypenguins_females
```

When you're done, the output should look something like this:

```
# A tibble: 165 x 6
   species island    sex    body_mass_g  year mean_body_mass
   <fct>   <fct>     <fct>        <int> <int>          <dbl>
 1 Adelie  Torgersen female        3800  2007          3862.
 2 Adelie  Torgersen female        3250  2007          3862.
 3 Adelie  Torgersen female        3450  2007          3862.
 4 Adelie  Torgersen female        3625  2007          3862.
 5 Adelie  Torgersen female        3200  2007          3862.
 6 Adelie  Torgersen female        3700  2007          3862.
 7 Adelie  Torgersen female        3450  2007          3862.
 8 Adelie  Torgersen female        3325  2007          3862.
 9 Adelie  Biscoe    female        3400  2007          3862.
10 Adelie  Biscoe    female        3800  2007          3862.
# … with 155 more rows
```
…
In the next step, we'll add another column that contains the standard deviation of the `body_mass_g` column. We'll do the same as the step above, but instead we'll use the `sd()` function to calculate the standard deviation. 


```{r}
## WRITE YOUR ANSWER IN HERE

tidypenguins_females <- dplyr::mutate(.data = tidypenguins_females, sd_body_mass = sd(___))
tidypenguins_females
```

When you're done the output should look something like this:

```
# A tibble: 165 x 7
   species island    sex    body_mass_g  year mean_body_mass sd_body_mass
   <fct>   <fct>     <fct>        <int> <int>          <dbl>        <dbl>
 1 Adelie  Torgersen female        3800  2007          3862.         666.
 2 Adelie  Torgersen female        3250  2007          3862.         666.
 3 Adelie  Torgersen female        3450  2007          3862.         666.
 4 Adelie  Torgersen female        3625  2007          3862.         666.
 5 Adelie  Torgersen female        3200  2007          3862.         666.
 6 Adelie  Torgersen female        3700  2007          3862.         666.
 7 Adelie  Torgersen female        3450  2007          3862.         666.
 8 Adelie  Torgersen female        3325  2007          3862.         666.
 9 Adelie  Biscoe    female        3400  2007          3862.         666.
10 Adelie  Biscoe    female        3800  2007          3862.         666.
# … with 155 more rows
```
…
In the final step, we'll add another column that will hold the z-score itself. Remember, to calculate the z-score, you'll take the body_mass_g column, you'll subtract the column that holds the mean, and you'll divide by the column that holds the standard deviation. For this we'll just need to use the `dplyr::mutate()` function. 


```{r}
## WRITE YOUR ANSWER IN HERE

tidypenguins_females <- dplyr::mutate(.data = tidypenguins_females, z_score = _____)
tidypenguins_females
```

When you're done, the output should look something like this:

```
# A tibble: 165 x 8
   species island    sex   body_mass_g  year mean_body_mass sd_body_mass z_score
   <fct>   <fct>     <fct>       <int> <int>          <dbl>        <dbl>   <dbl>
 1 Adelie  Torgersen fema…        3800  2007          3862.         666. -0.0935
 2 Adelie  Torgersen fema…        3250  2007          3862.         666. -0.919 
 3 Adelie  Torgersen fema…        3450  2007          3862.         666. -0.619 
 4 Adelie  Torgersen fema…        3625  2007          3862.         666. -0.356 
 5 Adelie  Torgersen fema…        3200  2007          3862.         666. -0.994 
 6 Adelie  Torgersen fema…        3700  2007          3862.         666. -0.244 
 7 Adelie  Torgersen fema…        3450  2007          3862.         666. -0.619 
 8 Adelie  Torgersen fema…        3325  2007          3862.         666. -0.807 
 9 Adelie  Biscoe    fema…        3400  2007          3862.         666. -0.694 
10 Adelie  Biscoe    fema…        3800  2007          3862.         666. -0.0935
# … with 155 more rows
```
…
