Data wrangling with dplyr
…
<style type="text/css">
.smoller .remark-code {
  font-size: 85%;
}
</style>

```r
output_result <- dplyr::select(.data = penguins, island)
output_result
```

```
## # A tibble: 344 × 1
##    island   
##    <fct>    
##  1 Torgersen
##  2 Torgersen
##  3 Torgersen
##  4 Torgersen
##  5 Torgersen
##  6 Torgersen
##  7 Torgersen
##  8 Torgersen
##  9 Torgersen
## 10 Torgersen
## # … with 334 more rows
```

---

Selecting multiple columns is just as easy as selecting one

```r
output_result <- dplyr::select(.data = penguins, island, sex)
output_result
```

```
## # A tibble: 344 × 2
##    island    sex   
##    <fct>     <fct> 
##  1 Torgersen male  
##  2 Torgersen female
##  3 Torgersen female
##  4 Torgersen <NA>  
##  5 Torgersen female
##  6 Torgersen male  
##  7 Torgersen female
##  8 Torgersen male  
##  9 Torgersen <NA>  
## 10 Torgersen <NA>  
## # … with 334 more rows
```
…
---
class: smoller

If you want to **delete**/**drop** columns instead of **selecting** them then
just add a `-` before the column name

```r
output_result <- dplyr::select(.data = penguins, -island, -sex, -year)
output_result
```

```
## # A tibble: 344 × 5
##    species bill_length_mm bill_depth_mm flipper_length_mm body_mass_g
##    <fct>            <dbl>         <dbl>             <int>       <int>
##  1 Adelie            39.1          18.7               181        3750
##  2 Adelie            39.5          17.4               186        3800
##  3 Adelie            40.3          18                 195        3250
##  4 Adelie            NA            NA                  NA          NA
##  5 Adelie            36.7          19.3               193        3450
##  6 Adelie            39.3          20.6               190        3650
##  7 Adelie            38.9          17.8               181        3625
##  8 Adelie            39.2          19.6               195        4675
##  9 Adelie            34.1          18.1               193        3475
## 10 Adelie            42            20.2               190        4250
## # … with 334 more rows
```
…
#### The `dplyr::filter()` function

The power the `dplyr::filter()` is only limited by your imagination! 

You can come up with all sorts of conditions:

Here's an example of matching a character string

```r
dplyr::filter(.data = penguins2, island == "Dream")
```

```
## # A tibble: 124 × 4
##    species island sex     year
##    <fct>   <fct>  <fct>  <int>
##  1 Adelie  Dream  female  2007
##  2 Adelie  Dream  male    2007
##  3 Adelie  Dream  female  2007
##  4 Adelie  Dream  male    2007
##  5 Adelie  Dream  female  2007
##  6 Adelie  Dream  male    2007
##  7 Adelie  Dream  male    2007
##  8 Adelie  Dream  female  2007
##  9 Adelie  Dream  female  2007
## 10 Adelie  Dream  male    2007
## # … with 114 more rows
```

All the penguins from **Dream** island 

---

Here's an example of (un)matching a character string

```r
dplyr::filter(.data = penguins2, island != "Dream")
```

```
## # A tibble: 220 × 4
##    species island    sex     year
##    <fct>   <fct>     <fct>  <int>
##  1 Adelie  Torgersen male    2007
##  2 Adelie  Torgersen female  2007
##  3 Adelie  Torgersen female  2007
##  4 Adelie  Torgersen <NA>    2007
##  5 Adelie  Torgersen female  2007
##  6 Adelie  Torgersen male    2007
##  7 Adelie  Torgersen female  2007
##  8 Adelie  Torgersen male    2007
##  9 Adelie  Torgersen <NA>    2007
## 10 Adelie  Torgersen <NA>    2007
## # … with 210 more rows
```

All the penguins **not** from **Dream** island

---

Here's an example with numbers 

```r
dplyr::filter(.data = penguins2, year > 2008)
```

```
## # A tibble: 120 × 4
##    species island sex     year
##    <fct>   <fct>  <fct>  <int>
##  1 Adelie  Biscoe female  2009
##  2 Adelie  Biscoe male    2009
##  3 Adelie  Biscoe female  2009
##  4 Adelie  Biscoe male    2009
##  5 Adelie  Biscoe female  2009
##  6 Adelie  Biscoe male    2009
##  7 Adelie  Biscoe female  2009
##  8 Adelie  Biscoe male    2009
##  9 Adelie  Biscoe female  2009
## 10 Adelie  Biscoe male    2009
## # … with 110 more rows
```
…
